{
    "name": "test-network-government",
    "version": "1.0.0",
    "client": {
        "organization": "Government",
        "connection": {
            "timeout": {
                "peer": {
                    "endorser": "300"
                }
            }
        }
    },
    "organizations": {
        "government": {
            "mspid": "GovernmentMSP",
            "peers": [
                "peer0.government.funds.com"
            ],
            "certificateAuthorities": [
                "ca.government.funds.com"
            ]
        }
    },
    "peers": {
        "peer0.government.funds.com": {
            "url": "grpcs://localhost:7051",
            "tlsCACerts": {
                "pem": "-----BEGIN CERTIFICATE-----\nMIICFzCCAb2gAwIBAgIUXAeSVhVBs0gYF14wV5WhxgB8IjQwCgYIKoZIzj0EAwIw\naDELMAkGA1UEBhMCVVMxFzAVBgNVBAgTDk5vcnRoIENhcm9saW5hMRQwEgYDVQQK\nEwtIeXBlcmxlZGdlcjEPMA0GA1UECxMGRmFicmljMRkwFwYDVQQDExBmYWJyaWMt\nY2Etc2VydmVyMB4XDTIxMTExMDEyMDcwMFoXDTM2MTEwNjEyMDcwMFowaDELMAkG\nA1UEBhMCVVMxFzAVBgNVBAgTDk5vcnRoIENhcm9saW5hMRQwEgYDVQQKEwtIeXBl\ncmxlZGdlcjEPMA0GA1UECxMGRmFicmljMRkwFwYDVQQDExBmYWJyaWMtY2Etc2Vy\ndmVyMFkwEwYHKoZIzj0CAQYIKoZIzj0DAQcDQgAE2iSIJgHEjdb8E37ryi9zhFZQ\nD1GG3eZJ1J4fA72TkwPBcm5xjDSZtS9lZjO/FnTVBsS9H8DCWTrlS/eebCUqGKNF\nMEMwDgYDVR0PAQH/BAQDAgEGMBIGA1UdEwEB/wQIMAYBAf8CAQEwHQYDVR0OBBYE\nFHByJrbvg5xUIeniXYf1dxzIz0v0MAoGCCqGSM49BAMCA0gAMEUCIQD7hKHcBVZn\n5hUU8PKYxuvNVECzbjR0h5H0UB/EZKfQlQIgGxXAFbslPW1u8Z5GV9wG35JVymxO\n4/Nn78FzjzinGgs=\n-----END CERTIFICATE-----\n"
            },
            "grpcOptions": {
                "ssl-target-name-override": "peer0.government.funds.com",
                "hostnameOverride": "peer0.government.funds.com"
            }
        }
    },
    "certificateAuthorities": {
        "ca.government.funds.com": {
            "url": "https://localhost:7054",
            "caName": "ca-government",
            "tlsCACerts": {
                "pem": ["-----BEGIN CERTIFICATE-----\nMIICFzCCAb2gAwIBAgIUXAeSVhVBs0gYF14wV5WhxgB8IjQwCgYIKoZIzj0EAwIw\naDELMAkGA1UEBhMCVVMxFzAVBgNVBAgTDk5vcnRoIENhcm9saW5hMRQwEgYDVQQK\nEwtIeXBlcmxlZGdlcjEPMA0GA1UECxMGRmFicmljMRkwFwYDVQQDExBmYWJyaWMt\nY2Etc2VydmVyMB4XDTIxMTExMDEyMDcwMFoXDTM2MTEwNjEyMDcwMFowaDELMAkG\nA1UEBhMCVVMxFzAVBgNVBAgTDk5vcnRoIENhcm9saW5hMRQwEgYDVQQKEwtIeXBl\ncmxlZGdlcjEPMA0GA1UECxMGRmFicmljMRkwFwYDVQQDExBmYWJyaWMtY2Etc2Vy\ndmVyMFkwEwYHKoZIzj0CAQYIKoZIzj0DAQcDQgAE2iSIJgHEjdb8E37ryi9zhFZQ\nD1GG3eZJ1J4fA72TkwPBcm5xjDSZtS9lZjO/FnTVBsS9H8DCWTrlS/eebCUqGKNF\nMEMwDgYDVR0PAQH/BAQDAgEGMBIGA1UdEwEB/wQIMAYBAf8CAQEwHQYDVR0OBBYE\nFHByJrbvg5xUIeniXYf1dxzIz0v0MAoGCCqGSM49BAMCA0gAMEUCIQD7hKHcBVZn\n5hUU8PKYxuvNVECzbjR0h5H0UB/EZKfQlQIgGxXAFbslPW1u8Z5GV9wG35JVymxO\n4/Nn78FzjzinGgs=\n-----END CERTIFICATE-----\n"]
            },
            "httpOptions": {
                "verify": false
            }
        }
    }
}
